{
  "links": [
    {
      "name": "twitter",
      "url": "https://twitter.com/tonirodriguez",
      "image": "images/social/twitter.svg"
    },
    {
      "name": "github",
      "url": "https://github.com/",
      "image": "images/social/github.svg"
    },
    {
      "name": "linkedin",
      "url": "https://www.linkedin.com/in/tonirodriguez/",
      "image": "images/social/linkedin.svg"
    }
  ]
}